{
  "count": 14,
  "next": "https://www.malaysia.gov.my/public/cms/service/faq/?format=json&limit=10&offset=10",
  "previous": null,
  "results": [
    {
      "idfaq": 13,
      "FAQ_question_ms": "<p><strong>10. Apakah faedah dan keistimewaan pengguna berdaftar?</strong></p>",
      "FAQ_question_en": "<div>&nbsp;</div>",
      "FAQ_answer_ms": "<p>Hanya pengguna berdaftar sahaja boleh menggunakan aplikasi dalam talian yang telah disediakan di Gerbang Rasmi Kerajaan Malaysia MyGovernment.</p>",
      "FAQ_answer_en": "<div>&nbsp;</div>",
      "FAQ_active_flag": true
    },
    {
      "idfaq": 9,
      "FAQ_question_ms": "<p><strong>6. Apakah jenis pelayar yang boleh digunakan untuk melayari Gerbang Rasmi Kerajaan Malaysia MyGovernment?</strong></p>",
      "FAQ_question_en": "<p><strong>6. What is contained in &ldquo;MyGovernment&rdquo; Online Gateway?</strong></p>",
      "FAQ_answer_ms": "<p>Gerbang Rasmi Kerajaan Malaysia MyGovernment disokong oleh pelayar sesawang&nbsp;Google Chrome Versi 57.0 dan Mozilla Firefox Versi 53.0 ke atas.</p>",
      "FAQ_answer_en": "<p>MyGovernment contains a list of selected topics to help citizens find information regarding government programs and a list &nbsp;of online services. Users only need to click the said link, which will bring you directly to the relevant online service. This will give you quicker access to the services that are available and immediately launch your transactions fast. This portal also contains information about Malaysia and Malaysia's initiatives</p>",
      "FAQ_active_flag": true
    },
    {
      "idfaq": 10,
      "FAQ_question_ms": "<p><strong>7. Adakah saya boleh melayari Gerbang Rasmi Kerajaan Malaysia MyGovernment menggunakan telefon bimbit?</strong></p>",
      "FAQ_question_en": "<p><strong>7. What web browser does MyGovernment support?</strong></p>",
      "FAQ_answer_ms": "<p>Ya, anda boleh melayari Gerbang Rasmi Kerajaan Malaysia MyGovernmentversi mudah alih menerusi telefon pintar atau&nbsp;tablet dengan hanya dengan klik pada ikon . Kemudian, imbas kod QR yang disediakan untuk melayari Gerbang Rasmi Kerajaan Malaysia MyGovernment dalam versi mudah alih. &nbsp;</p>\r\n<p>&nbsp;</p>",
      "FAQ_answer_en": "<p>The MyGovernment Online Gateway, only supports&nbsp;Google Chrome Version 57.0 and Mozilla Firefox Version 53.0&nbsp;above.&nbsp;</p>\r\n<p><strong>&nbsp;</strong></p>",
      "FAQ_active_flag": true
    },
    {
      "idfaq": 11,
      "FAQ_question_ms": "<p><strong>8. Adakah saya boleh menukar bahasa yang digunakan di Gerbang Rasmi Kerajaan Malaysia MyGovernment?</strong></p>",
      "FAQ_question_en": "<p><strong>8. Can I use the my mobile phone to surf the \"MyGovernment\" online Gateway?</strong></p>",
      "FAQ_answer_ms": "<p>Ya, Gerbang Rasmi Kerajaan Malaysia MyGovernment menyediakan dua pilihan bahasa iaitu Bahasa Malaysia dan Bahasa Inggeris.</p>",
      "FAQ_answer_en": "<p>Yes, access to MyGovernment online Gateway using mobile phones is fully supported.</p>",
      "FAQ_active_flag": true
    },
    {
      "idfaq": 8,
      "FAQ_question_ms": "<p><strong>5. Sekiranya saya terlupa kata laluan, apakah yang harus saya lakukan?</strong></p>",
      "FAQ_question_en": "<p><strong>5. What is \"Digital Services\"?</strong></p>",
      "FAQ_answer_ms": "<p>1. Klik pautan &lsquo;Gagal Akses Akaun?&rsquo;pada skrin Log Masuk;<br />2. Klik pada ikon Kata Laluan;&nbsp;<br />3. Masukkan Emel yang berdaftar dengan Gerbang Rasmi Kerajaan Malaysia MyGovernment;<br />4. Masukkan teks pengesahan yang dipamerkan; dan<br />5. Klik [<strong>SET SEMULA</strong>] untuk set semula kata laluan.</p>",
      "FAQ_answer_en": "<p>Digital Services are services that are available for License Application and Renewal on the MyGovernment Online Gateway</p>",
      "FAQ_active_flag": true
    },
    {
      "idfaq": 4,
      "FAQ_question_ms": "<p><strong>1. Apakah Gerbang Rasmi Kerajaan Malaysia MyGovernment?</strong></p>",
      "FAQ_question_en": "<p><strong><span>1. How will I know if my registration was successful?</span></strong></p>",
      "FAQ_answer_ms": "<p><span>Gerbang Rasmi Kerajaan Malaysia MyGovernment ialah satu gerbang tunggal bagi semua maklumat perkhidmatan dalam talian kerajaan yang berkonsepkan&nbsp;</span><em>life event</em><span>&nbsp;yang berpaksikan rakyat.</span></p>",
      "FAQ_answer_en": "<p><span>Click the registration link and make a selection between Citizens and Non-Citizens, and fill-in your personal details</span></p>",
      "FAQ_active_flag": true
    },
    {
      "idfaq": 5,
      "FAQ_question_ms": "<p><strong>2. Apakah tujuan gerbang ini disediakan?</strong></p>",
      "FAQ_question_en": "<p><strong><span>2. How will I know if my registration was successful?</span></strong></p>",
      "FAQ_answer_ms": "<p>Tujuan Gerbang Dalam Talian Kerajaan ini adalah untuk meningkatkan kualiti penyampaian perkhidmatan kerajaan bagi memenuhi perkara berikut :</p>\r\n<ol>\r\n<li>Meningkatkan kepuasan pelanggan melalui inisiatif kerajaan untuk merakyatkan perkhidmatan awam.</li>\r\n<li>Memenuhi keperluan rakyat dengan perkhidmatan kerajaan yang lebih telus, berdaya saing dan kompeten.</li>\r\n<li>Meningkatkan aksesibiliti ke atas perkhidmatan dalam talian kerajaan dengan transformasi perkhidmatan alaf baru.</li>\r\n<li>Meningkatkan sistem penyampaian perkhidmatan di persada global.</li>\r\n</ol>",
      "FAQ_answer_en": "<p><span>You will receive an email, as soon as your registration is completed. Please review your email to authorize and proceed to login to the MyGovernment Online Gateway. Users can use the email address and their registered password for login purpose. Then click &ldquo;Login&rdquo;</span></p>",
      "FAQ_active_flag": true
    },
    {
      "idfaq": 6,
      "FAQ_question_ms": "<p><strong>3. Bagaimanakah sekiranya saya ingin menggunakan perkhidmatan dalam talian?</strong></p>",
      "FAQ_question_en": "<p><strong><span>3. What are the benefits of being a registered user?</span></strong></p>",
      "FAQ_answer_ms": "<p><span>Anda perlu menjadi pengguna berdaftar terlebih dahulu. Untuk mendaftar anda perlu klik pada pautan Daftar dan buat pilihan antara warganegara dan bukan warganegara. Seterusnya isikan maklumat perihal diri anda dan klik butang Hantar.</span></p>",
      "FAQ_answer_en": "<p><span>Only registered users, can use online applications that are provided in this gateway.</span></p>",
      "FAQ_active_flag": true
    },
    {
      "idfaq": 7,
      "FAQ_question_ms": "<p><strong>4. Bagaimanakah saya boleh mengetahui sekiranya pendaftaran berjaya dan akaun saya telah aktif?</strong></p>",
      "FAQ_question_en": "<p><strong>4. What must I do, if I forget my password?</strong></p>",
      "FAQ_answer_ms": "<ol>\r\n<li>Anda akan menerima notifikasi &ldquo;Permohonan pendaftaran anda telah berjaya&rdquo; selepas menghantar permohonan;</li>\r\n<li>Anda akan menerima emel pengaktifan; &nbsp;</li>\r\n<li>Semak emel dan klik pautan yang dihantar untuk mengaktifkan akaun;</li>\r\n<li>Skrin pengaktifan akaun akan dipaparkan;</li>\r\n<li>Masukkan alamat emel atau No. Kad Pengenalan/Pasport dan juga kata laluan yang telah didaftarkan;</li>\r\n<li>Kemudian, klik pada butang &lsquo;Log Masuk&rsquo;.</li>\r\n</ol>",
      "FAQ_answer_en": "<p>1. Click on 'Can't Access Your Account?';<br />2. Click on Password icon;<br />3. Enter registered email in MyGovernment Portal;<br />4. Enter displayed verification text; and<br />5. Click on [<strong>RESET</strong>] to reset password.</p>",
      "FAQ_active_flag": true
    },
    {
      "idfaq": 17,
      "FAQ_question_ms": "<p><strong>14. Bagaimana saya ingin menghubungi sekiranya saya mempunyai sebarang masalah?</strong></p>",
      "FAQ_question_en": "<div>&nbsp;</div>",
      "FAQ_answer_ms": "<p>Anda boleh menghubungi pusat panggilan setempat 1Malaysia One Call Centre (1MOCC) di talian 03-8000 8000.</p>",
      "FAQ_answer_en": "<div>&nbsp;</div>",
      "FAQ_active_flag": true
    }
  ]
}